^C:\USERS\2015110705\DOCUMENTS\VISUAL STUDIO 2010\PROJECTS\DS03\1\MAIN.C
C:\USERS\2015110705\DOCUMENTS\VISUAL STUDIO 2010\PROJECTS\DS03\1\DEBUG\MAIN.OBJ
C:\USERS\2015110705\DOCUMENTS\VISUAL STUDIO 2010\PROJECTS\DS03\1\DEBUG\VC100.PDB
