^C:\USERS\2015110705\DOCUMENTS\VISUAL STUDIO 2010\PROJECTS\DS03\3-3\MAIN.C
C:\PROGRAM FILES\MICROSOFT VISUAL STUDIO 10.0\VC\BIN\1042\CLUI.DLL
C:\WINDOWS\GLOBALIZATION\SORTING\SORTDEFAULT.NLS
C:\WINDOWS\SYSTEM32\RSAENH.DLL
C:\WINDOWS\SYSTEM32\TZRES.DLL
C:\PROGRAM FILES\MICROSOFT VISUAL STUDIO 10.0\VC\INCLUDE\STDIO.H
C:\PROGRAM FILES\MICROSOFT VISUAL STUDIO 10.0\VC\INCLUDE\CRTDEFS.H
C:\PROGRAM FILES\MICROSOFT VISUAL STUDIO 10.0\VC\INCLUDE\SAL.H
C:\PROGRAM FILES\MICROSOFT VISUAL STUDIO 10.0\VC\INCLUDE\CODEANALYSIS\SOURCEANNOTATIONS.H
C:\PROGRAM FILES\MICROSOFT VISUAL STUDIO 10.0\VC\INCLUDE\VADEFS.H
C:\PROGRAM FILES\MICROSOFT VISUAL STUDIO 10.0\VC\INCLUDE\SWPRINTF.INL
C:\PROGRAM FILES\MICROSOFT VISUAL STUDIO 10.0\VC\INCLUDE\TIME.H
C:\PROGRAM FILES\MICROSOFT VISUAL STUDIO 10.0\VC\INCLUDE\WTIME.INL
C:\PROGRAM FILES\MICROSOFT VISUAL STUDIO 10.0\VC\INCLUDE\TIME.INL
C:\USERS\2015110705\DOCUMENTS\VISUAL STUDIO 2010\PROJECTS\DS03\3-3\SELECTIONSORT.H
C:\PROGRAM FILES\MICROSOFT VISUAL STUDIO 10.0\VC\INCLUDE\STDLIB.H
C:\PROGRAM FILES\MICROSOFT VISUAL STUDIO 10.0\VC\INCLUDE\LIMITS.H
