^C:\USERS\2015110705\DOCUMENTS\VISUAL STUDIO 2010\PROJECTS\DS03\3-2\DEBUG\MAIN.OBJ
C:\USERS\2015110705\DOCUMENTS\VISUAL STUDIO 2010\PROJECTS\DS03\DEBUG\3-2.ILK
C:\USERS\2015110705\DOCUMENTS\VISUAL STUDIO 2010\PROJECTS\DS03\DEBUG\3-2.EXE
C:\USERS\2015110705\DOCUMENTS\VISUAL STUDIO 2010\PROJECTS\DS03\3-2\DEBUG\3-2.EXE.INTERMEDIATE.MANIFEST
C:\USERS\2015110705\DOCUMENTS\VISUAL STUDIO 2010\PROJECTS\DS03\DEBUG\3-2.PDB
